{"properties":[{"media":{"photos":[],"videos":[],"floorplans":[],"brochures":[]},"maintenance":{"amount":null,"period":"Monthly"},"_id":"692a07c1451dd35e7b66b8c3","id":15,"userId":"user_1764176896606","images":[],"type":"1 BHK","bhk":1,"area":"e33","price":"₹44","priceValue":44,"location":"55, Nellore","status":"active","furnishing":"Unfurnished","isFeatured":false,"planType":"free","viewsLast7Days":0,"viewsLast30Days":0,"leadsLast7Days":0,"leadsLast30Days":0,"shortlistsCount":0,"contactRole":"owner","whatsapp":false,"contactOnlyLoggedIn":false,"country":"India","city":"Nellore","latitude":19.076,"longitude":72.8777,"hideExactLocation":false,"maintenancePeriod":"monthly","negotiable":false,"preferredTenants":[],"bathrooms":1,"balconies":0,"coveredParking":0,"openParking":0,"userType":"Owner","phoneNumber":"1234567899","lookingTo":"Sell","propertyKind":"Residential","propertyType":"Apartment","plotArea":"","carpetArea":"e33","totalFloors":1,"availability":"Ready to move","propertyAge":"1-5 years","ownership":"Freehold","expectedPrice":44,"description":"aaaaaaaaaaaaaaaaaaaaaaaaaaaaaaa","keyHighlights":[],"amenities":[],"facing":"North","propertyOnFloor":"","reraId":"","priceIncludes":[],"gatedCommunity":false,"nearbyLandmarks":[],"createdAt":"2025-11-28T20:36:17.211Z","updatedAt":"2025-11-28T20:36:52.850Z","__v":0,"video":null},{"media":{"photos":[],"videos":[],"floorplans":[],"brochures":[]},"maintenance":{"amount":null,"period":"Monthly"},"_id":"6929fdc5f151a869f4890664","id":14,"userId":"user_1764176896606","images":[{"thumbnail":"/uploads/properties/14/1764359621490_thumb.webp","medium":"/uploads/properties/14/1764359621490_medium.webp","optimized":"/uploads/properties/14/1764359621490_orig.webp"}],"type":"1 BHK","bhk":1,"area":"777","price":"₹555","priceValue":555,"location":"hh, Nellore","status":"For Sale","furnishing":"Unfurnished","isFeatured":false,"planType":"free","viewsLast7Days":0,"viewsLast30Days":0,"leadsLast7Days":0,"leadsLast30Days":0,"shortlistsCount":0,"contactRole":"owner","whatsapp":false,"contactOnlyLoggedIn":false,"country":"India","city":"Nellore","latitude":19.076,"longitude":72.8777,"hideExactLocation":false,"maintenancePeriod":"monthly","negotiable":false,"preferredTenants":[],"bathrooms":1,"balconies":0,"coveredParking":0,"openParking":0,"userType":"Owner","phoneNumber":"1234567898","lookingTo":"Sell","propertyKind":"Residential","propertyType":"Apartment","plotArea":"777","carpetArea":"","totalFloors":1,"availability":"Ready to move","propertyAge":"1-5 years","ownership":"Freehold","expectedPrice":555,"description":"asdfghjjjjjjjjjjjjjjjjjjjjjjjjjjjjjjjjj","keyHighlights":[],"amenities":["Power Backup","Visitor Parking","Security"],"facing":"North","propertyOnFloor":"","reraId":"","priceIncludes":[],"gatedCommunity":false,"nearbyLandmarks":[],"createdAt":"2025-11-28T19:53:41.853Z","updatedAt":"2025-11-28T19:53:41.853Z","__v":0},{"media":{"photos":[],"videos":[],"floorplans":[],"brochures":[]},"contactRole":"owner","whatsapp":false,"contactOnlyLoggedIn":false,"country":"India","latitude":19.076,"longitude":72.8777,"hideExactLocation":false,"maintenancePeriod":"monthly","negotiable":false,"preferredTenants":[],"keyHighlights":[],"amenities":[],"priceIncludes":[],"nearbyLandmarks":[],"_id":"6928993a902df759cf856819","id":13,"userId":"user_1764094786552","images":["uploads\\1764268346672.png"],"type":"3 BHK","bhk":3,"area":"1500 sqft","price":"₹0","priceValue":0,"location":"goa, goa","status":"For Sale","furnishing":"Unfurnished","isFeatured":false,"userType":"Owner","phoneNumber":"538777749","lookingTo":"Sell","propertyKind":"Residential","propertyType":"Apartment","city":"goa","bathrooms":2,"balconies":1,"plotArea":"","carpetArea":"","coveredParking":0,"openParking":0,"totalFloors":1,"availability":"Ready to move","propertyAge":"1-5 years","ownership":"Freehold","expectedPrice":null,"description":"","createdAt":"2025-11-27T18:32:26.745Z","updatedAt":"2025-11-27T19:13:32.149Z","__v":0,"leadsLast30Days":27,"leadsLast7Days":16,"planType":"premium","shortlistsCount":11,"viewsLast30Days":68,"viewsLast7Days":39,"expiresAt":"2025-12-09T18:01:21.439Z"},{"media":{"photos":[{"url":"blob:http://localhost:5173/c8d01721-c58a-40cb-a9e9-ad6ab371af1a","fileName":"beautiful-new-home-exterior-clear-evening-provides-setting-luxurious-34711767.webp","fileType":"image/webp","fileSize":62444,"imageType":"entrance","sortOrder":0,"isCover":true,"uploadDate":"2025-11-28T14:17:56.900Z","_id":"6929b0a50f9d6d13d6354eb9"},{"url":"blob:http://localhost:5173/f9b7342f-59cd-4780-9e62-341b8a3504e2","fileName":"360_F_361162520_bgRKQmlB8lm2Z45NQ7GBaNT675tMOCGq.jpg","fileType":"image/jpeg","fileSize":84090,"sortOrder":1,"isCover":false,"uploadDate":"2025-11-28T14:18:26.416Z","_id":"6929b0a50f9d6d13d6354eba"}],"videos":[],"floorplans":[],"brochures":[]},"keyHighlights":[],"priceIncludes":[],"nearbyLandmarks":[],"_id":"6927343442fb8afe3bd92cb0","id":12,"userId":"user_1764176896606","images":[],"type":"1 BHK","bhk":1,"area":"1500 sqft","price":"25000","priceValue":111,"location":"Location, Nellore","status":"archived","furnishing":"semi-furnished","isFeatured":false,"userType":"Owner","phoneNumber":"12","lookingTo":"Sell","propertyKind":"Residential","propertyType":"Apartment","city":"Nellore","bathrooms":4,"balconies":2,"plotArea":"","carpetArea":"22","coveredParking":1,"openParking":1,"totalFloors":1,"availability":"2025-12-07","propertyAge":"1-5 years","ownership":"Freehold","expectedPrice":111,"description":"This beautiful 1 BHK Apartment offers. 1500 sqft sq ft of well-designed living space. with access to 1 premium amenities including powerBackup. The property is semi-furnished and ready for immediate occupancy. This is an excellent opportunity for families and professionals looking for quality living space with modern conveniences..","createdAt":"2025-11-26T17:09:08.756Z","updatedAt":"2025-11-28T14:25:15.161Z","__v":0,"leadsLast30Days":10,"leadsLast7Days":10,"planType":"free","shortlistsCount":13,"viewsLast30Days":187,"viewsLast7Days":20,"video":null,"addressLine":"dfsafasda","alternatePhone":"","bedrooms":3,"buildingName":"dsdfd","contactOnlyLoggedIn":false,"contactRole":"owner","country":"India","coveredBikeParking":2,"email":"s@gmail.com","facing":"","flooring":"wooden","hideExactLocation":false,"landmark":"","latitude":19.076,"locality":"","longitude":72.8777,"maintenanceAmount":null,"maintenancePeriod":"monthly","metaDescription":"","metaTitle":"","negotiable":true,"openBikeParking":1,"ownerName":"sha","pincode":"","powerBackup":"","propertyOnFloor":"22","securityDeposit":"11","state":"","superBuiltUpArea":"222","urlSlug":"","waterSupply":"24x7","whatsapp":true,"amenities":["swimmingPool","clubhouse","powerBackup","waterSupply","wardrobes","ceilingFans","cableTV","internet","chimney","modularKitchen","airConditioner","geyser","lighting","intercom"],"preferredTenants":["family","bachelor"]},{"media":{"photos":[],"videos":[],"floorplans":[],"brochures":[]},"contactRole":"owner","whatsapp":false,"contactOnlyLoggedIn":false,"country":"India","latitude":19.076,"longitude":72.8777,"hideExactLocation":false,"maintenancePeriod":"monthly","negotiable":false,"preferredTenants":[],"keyHighlights":[],"amenities":[],"priceIncludes":[],"nearbyLandmarks":[],"_id":"6926fa6eb2d5e4d1fae80a3a","id":11,"userId":"user_1764094786552","images":["uploads\\1764162157832.jpg"],"type":"1 BHK","bhk":1,"area":"1500 sqft","price":"₹0","priceValue":0,"location":"Location, Nellore","status":"For Sale","furnishing":"Unfurnished","isFeatured":false,"userType":"Broker","phoneNumber":"538777749","lookingTo":"Sell","propertyKind":"Commercial","propertyType":"Industrial Shed","city":"Nellore","bathrooms":1,"balconies":0,"plotArea":"","carpetArea":"","coveredParking":0,"openParking":0,"totalFloors":1,"availability":"Ready to move","propertyAge":"1-5 years","ownership":"Freehold","expectedPrice":null,"description":"","createdAt":"2025-11-26T13:02:38.882Z","updatedAt":"2025-11-27T16:48:16.863Z","__v":0,"expiresAt":"2025-12-04T00:47:33.459Z","leadsLast30Days":40,"leadsLast7Days":13,"planType":"featured","shortlistsCount":12,"viewsLast30Days":71,"viewsLast7Days":18},{"media":{"photos":[],"videos":[],"floorplans":[],"brochures":[]},"contactRole":"owner","whatsapp":false,"contactOnlyLoggedIn":false,"country":"India","latitude":19.076,"longitude":72.8777,"hideExactLocation":false,"maintenancePeriod":"monthly","negotiable":false,"preferredTenants":[],"keyHighlights":[],"amenities":[],"priceIncludes":[],"nearbyLandmarks":[],"_id":"6925f38c73969a997c6d923d","id":10,"userId":"user_1764094786552","images":["uploads\\1764094860232.jpeg"],"type":"2 BHK","bhk":2,"area":"1500 sqft","price":"₹0","priceValue":0,"location":"stonepetta, Nellore","status":"For Sale","furnishing":"Unfurnished","isFeatured":false,"userType":"Owner","phoneNumber":"538777749","lookingTo":"Sell","propertyKind":"Residential","propertyType":"Apartment","city":"Nellore","bathrooms":1,"balconies":1,"plotArea":"","carpetArea":"","coveredParking":0,"openParking":0,"totalFloors":1,"availability":"Ready to move","propertyAge":"1-5 years","ownership":"Freehold","expectedPrice":null,"description":"","createdAt":"2025-11-25T18:21:00.324Z","updatedAt":"2025-11-27T16:48:16.824Z","__v":0,"expiresAt":"2025-12-23T01:09:12.144Z","leadsLast30Days":64,"leadsLast7Days":7,"planType":"featured","shortlistsCount":13,"viewsLast30Days":55,"viewsLast7Days":56},{"media":{"photos":[],"videos":[],"floorplans":[],"brochures":[]},"contactRole":"owner","whatsapp":false,"contactOnlyLoggedIn":false,"country":"India","latitude":19.076,"longitude":72.8777,"hideExactLocation":false,"maintenancePeriod":"monthly","negotiable":false,"preferredTenants":[],"keyHighlights":[],"amenities":[],"priceIncludes":[],"nearbyLandmarks":[],"_id":"69183492d1a6716b86628ed6","id":9,"userId":"user_1763031794290","images":[],"type":"1 BHK","bhk":1,"area":"1500 sqft","price":"₹0","priceValue":0,"location":"Location, Nellore","status":"For Sale","furnishing":"Unfurnished","isFeatured":false,"userType":"Owner","phoneNumber":"1234567899","lookingTo":"Sell","propertyKind":"Residential","propertyType":"Apartment","city":"Nellore","bathrooms":1,"balconies":0,"plotArea":"","carpetArea":"","coveredParking":0,"openParking":0,"totalFloors":1,"availability":"Ready to move","propertyAge":"1-5 years","ownership":"Freehold","expectedPrice":null,"description":"","createdAt":"2025-11-15T08:06:42.371Z","updatedAt":"2025-11-27T16:48:16.684Z","__v":0,"leadsLast30Days":65,"leadsLast7Days":3,"planType":"free","shortlistsCount":6,"viewsLast30Days":249,"viewsLast7Days":22},{"media":{"photos":[],"videos":[],"floorplans":[],"brochures":[]},"contactRole":"owner","whatsapp":false,"contactOnlyLoggedIn":false,"country":"India","latitude":19.076,"longitude":72.8777,"hideExactLocation":false,"maintenancePeriod":"monthly","negotiable":false,"preferredTenants":[],"keyHighlights":[],"amenities":[],"priceIncludes":[],"nearbyLandmarks":[],"_id":"691830706bf4d097b7f8d742","id":8,"userId":"user_1763031794290","images":[],"type":"1 BHK","bhk":1,"area":"1500 sqft","price":"₹0","priceValue":0,"location":"Location, Nellore","status":"For Sale","furnishing":"Unfurnished","isFeatured":false,"userType":"Owner","phoneNumber":"1234567899","lookingTo":"Sell","propertyKind":"Residential","propertyType":"Apartment","city":"Nellore","bathrooms":1,"balconies":0,"plotArea":"","carpetArea":"","coveredParking":0,"openParking":0,"totalFloors":1,"availability":"Ready to move","propertyAge":"1-5 years","ownership":"Freehold","expectedPrice":null,"description":"","createdAt":"2025-11-15T07:49:04.860Z","updatedAt":"2025-11-27T16:48:16.646Z","__v":0,"expiresAt":"2025-12-05T06:37:38.965Z","leadsLast30Days":17,"leadsLast7Days":13,"planType":"featured","shortlistsCount":21,"viewsLast30Days":219,"viewsLast7Days":29},{"media":{"photos":[],"videos":[],"floorplans":[],"brochures":[]},"contactRole":"owner","whatsapp":false,"contactOnlyLoggedIn":false,"country":"India","latitude":19.076,"longitude":72.8777,"hideExactLocation":false,"maintenancePeriod":"monthly","negotiable":false,"preferredTenants":[],"keyHighlights":[],"amenities":[],"priceIncludes":[],"nearbyLandmarks":[],"_id":"691830066bf4d097b7f8d73f","id":7,"userId":"user_1763031794290","images":["uploads\\1763192838195.jpg","uploads\\1763192838221.jpg","uploads\\1763192838240.jpg"],"type":"1 BHK","bhk":1,"area":"1500 sqft","price":"₹12.46 Lakh","priceValue":1245555,"location":"Location, Nellore","status":"For Sale","furnishing":"Unfurnished","isFeatured":false,"userType":"Owner","phoneNumber":"1234567899","lookingTo":"Sell","propertyKind":"Residential","propertyType":"Apartment","city":"Nellore","bathrooms":1,"balconies":0,"plotArea":"","carpetArea":"","coveredParking":0,"openParking":0,"totalFloors":1,"availability":"Ready to move","propertyAge":"1-5 years","ownership":"Freehold","expectedPrice":1245555,"description":"","createdAt":"2025-11-15T07:47:18.327Z","updatedAt":"2025-11-27T16:48:16.606Z","__v":0,"expiresAt":"2025-11-30T02:21:47.519Z","leadsLast30Days":66,"leadsLast7Days":6,"planType":"featured","shortlistsCount":11,"viewsLast30Days":211,"viewsLast7Days":57}],"totalCount":15,"totalPages":2,"currentPage":1}