{"properties":[{"media":{"photos":[],"videos":[],"floorplans":[],"brochures":[]},"contactRole":"owner","whatsapp":false,"contactOnlyLoggedIn":false,"country":"India","latitude":19.076,"longitude":72.8777,"hideExactLocation":false,"maintenancePeriod":"monthly","negotiable":false,"preferredTenants":[],"keyHighlights":[],"amenities":[],"priceIncludes":[],"nearbyLandmarks":[],"_id":"6928993a902df759cf856819","id":13,"userId":"user_1764094786552","images":["/uploads/1764268346672.png"],"type":"3 BHK","bhk":3,"area":"1500 sqft","price":"₹0","priceValue":0,"location":"goa, goa","status":"For Sale","furnishing":"Unfurnished","isFeatured":false,"userType":"Owner","phoneNumber":"538777749","lookingTo":"Sell","propertyKind":"Residential","propertyType":"Apartment","city":"goa","bathrooms":2,"balconies":1,"plotArea":"","carpetArea":"","coveredParking":0,"openParking":0,"totalFloors":1,"availability":"Ready to move","propertyAge":"1-5 years","ownership":"Freehold","expectedPrice":null,"description":"","createdAt":"2025-11-27T18:32:26.745Z","updatedAt":"2025-11-27T19:13:32.149Z","__v":0,"leadsLast30Days":27,"leadsLast7Days":16,"planType":"premium","shortlistsCount":11,"viewsLast30Days":68,"viewsLast7Days":39,"expiresAt":"2025-12-09T18:01:21.439Z"},{"media":{"photos":[],"videos":[],"floorplans":[],"brochures":[]},"contactRole":"owner","whatsapp":false,"contactOnlyLoggedIn":false,"country":"India","latitude":19.076,"longitude":72.8777,"hideExactLocation":false,"maintenancePeriod":"monthly","negotiable":false,"preferredTenants":[],"keyHighlights":[],"amenities":[],"priceIncludes":[],"nearbyLandmarks":[],"_id":"6926fa6eb2d5e4d1fae80a3a","id":11,"userId":"user_1764094786552","images":["/uploads/1764162157832.jpg"],"type":"1 BHK","bhk":1,"area":"1500 sqft","price":"₹0","priceValue":0,"location":"Location, Nellore","status":"For Sale","furnishing":"Unfurnished","isFeatured":false,"userType":"Broker","phoneNumber":"538777749","lookingTo":"Sell","propertyKind":"Commercial","propertyType":"Industrial Shed","city":"Nellore","bathrooms":1,"balconies":0,"plotArea":"","carpetArea":"","coveredParking":0,"openParking":0,"totalFloors":1,"availability":"Ready to move","propertyAge":"1-5 years","ownership":"Freehold","expectedPrice":null,"description":"","createdAt":"2025-11-26T13:02:38.882Z","updatedAt":"2025-11-27T16:48:16.863Z","__v":0,"expiresAt":"2025-12-04T00:47:33.459Z","leadsLast30Days":40,"leadsLast7Days":13,"planType":"featured","shortlistsCount":12,"viewsLast30Days":71,"viewsLast7Days":18},{"media":{"photos":[],"videos":[],"floorplans":[],"brochures":[]},"contactRole":"owner","whatsapp":false,"contactOnlyLoggedIn":false,"country":"India","latitude":19.076,"longitude":72.8777,"hideExactLocation":false,"maintenancePeriod":"monthly","negotiable":false,"preferredTenants":[],"keyHighlights":[],"amenities":[],"priceIncludes":[],"nearbyLandmarks":[],"_id":"6925f38c73969a997c6d923d","id":10,"userId":"user_1764094786552","images":["/uploads/1764094860232.jpeg"],"type":"2 BHK","bhk":2,"area":"1500 sqft","price":"₹0","priceValue":0,"location":"stonepetta, Nellore","status":"For Sale","furnishing":"Unfurnished","isFeatured":false,"userType":"Owner","phoneNumber":"538777749","lookingTo":"Sell","propertyKind":"Residential","propertyType":"Apartment","city":"Nellore","bathrooms":1,"balconies":1,"plotArea":"","carpetArea":"","coveredParking":0,"openParking":0,"totalFloors":1,"availability":"Ready to move","propertyAge":"1-5 years","ownership":"Freehold","expectedPrice":null,"description":"","createdAt":"2025-11-25T18:21:00.324Z","updatedAt":"2025-11-27T16:48:16.824Z","__v":0,"expiresAt":"2025-12-23T01:09:12.144Z","leadsLast30Days":64,"leadsLast7Days":7,"planType":"featured","shortlistsCount":13,"viewsLast30Days":55,"viewsLast7Days":56},{"media":{"photos":[],"videos":[],"floorplans":[],"brochures":[]},"contactRole":"owner","whatsapp":false,"contactOnlyLoggedIn":false,"country":"India","latitude":19.076,"longitude":72.8777,"hideExactLocation":false,"maintenancePeriod":"monthly","negotiable":false,"preferredTenants":[],"keyHighlights":[],"amenities":[],"priceIncludes":[],"nearbyLandmarks":[],"_id":"69183492d1a6716b86628ed6","id":9,"userId":"user_1763031794290","images":[],"type":"1 BHK","bhk":1,"area":"1500 sqft","price":"₹0","priceValue":0,"location":"Location, Nellore","status":"For Sale","furnishing":"Unfurnished","isFeatured":false,"userType":"Owner","phoneNumber":"1234567899","lookingTo":"Sell","propertyKind":"Residential","propertyType":"Apartment","city":"Nellore","bathrooms":1,"balconies":0,"plotArea":"","carpetArea":"","coveredParking":0,"openParking":0,"totalFloors":1,"availability":"Ready to move","propertyAge":"1-5 years","ownership":"Freehold","expectedPrice":null,"description":"","createdAt":"2025-11-15T08:06:42.371Z","updatedAt":"2025-11-27T16:48:16.684Z","__v":0,"leadsLast30Days":65,"leadsLast7Days":3,"planType":"free","shortlistsCount":6,"viewsLast30Days":249,"viewsLast7Days":22},{"media":{"photos":[],"videos":[],"floorplans":[],"brochures":[]},"contactRole":"owner","whatsapp":false,"contactOnlyLoggedIn":false,"country":"India","latitude":19.076,"longitude":72.8777,"hideExactLocation":false,"maintenancePeriod":"monthly","negotiable":false,"preferredTenants":[],"keyHighlights":[],"amenities":[],"priceIncludes":[],"nearbyLandmarks":[],"_id":"691830706bf4d097b7f8d742","id":8,"userId":"user_1763031794290","images":[],"type":"1 BHK","bhk":1,"area":"1500 sqft","price":"₹0","priceValue":0,"location":"Location, Nellore","status":"For Sale","furnishing":"Unfurnished","isFeatured":false,"userType":"Owner","phoneNumber":"1234567899","lookingTo":"Sell","propertyKind":"Residential","propertyType":"Apartment","city":"Nellore","bathrooms":1,"balconies":0,"plotArea":"","carpetArea":"","coveredParking":0,"openParking":0,"totalFloors":1,"availability":"Ready to move","propertyAge":"1-5 years","ownership":"Freehold","expectedPrice":null,"description":"","createdAt":"2025-11-15T07:49:04.860Z","updatedAt":"2025-11-27T16:48:16.646Z","__v":0,"expiresAt":"2025-12-05T06:37:38.965Z","leadsLast30Days":17,"leadsLast7Days":13,"planType":"featured","shortlistsCount":21,"viewsLast30Days":219,"viewsLast7Days":29},{"media":{"photos":[],"videos":[],"floorplans":[],"brochures":[]},"contactRole":"owner","whatsapp":false,"contactOnlyLoggedIn":false,"country":"India","latitude":19.076,"longitude":72.8777,"hideExactLocation":false,"maintenancePeriod":"monthly","negotiable":false,"preferredTenants":[],"keyHighlights":[],"amenities":[],"priceIncludes":[],"nearbyLandmarks":[],"_id":"691830066bf4d097b7f8d73f","id":7,"userId":"user_1763031794290","images":["/uploads/1763192838195.jpg","/uploads/1763192838221.jpg","/uploads/1763192838240.jpg"],"type":"1 BHK","bhk":1,"area":"1500 sqft","price":"₹12.46 Lakh","priceValue":1245555,"location":"Location, Nellore","status":"For Sale","furnishing":"Unfurnished","isFeatured":false,"userType":"Owner","phoneNumber":"1234567899","lookingTo":"Sell","propertyKind":"Residential","propertyType":"Apartment","city":"Nellore","bathrooms":1,"balconies":0,"plotArea":"","carpetArea":"","coveredParking":0,"openParking":0,"totalFloors":1,"availability":"Ready to move","propertyAge":"1-5 years","ownership":"Freehold","expectedPrice":1245555,"description":"","createdAt":"2025-11-15T07:47:18.327Z","updatedAt":"2025-11-27T16:48:16.606Z","__v":0,"expiresAt":"2025-11-30T02:21:47.519Z","leadsLast30Days":66,"leadsLast7Days":6,"planType":"featured","shortlistsCount":11,"viewsLast30Days":211,"viewsLast7Days":57},{"media":{"photos":[],"videos":[],"floorplans":[],"brochures":[]},"contactRole":"owner","whatsapp":false,"contactOnlyLoggedIn":false,"country":"India","latitude":19.076,"longitude":72.8777,"hideExactLocation":false,"maintenancePeriod":"monthly","negotiable":false,"preferredTenants":[],"keyHighlights":[],"amenities":[],"priceIncludes":[],"nearbyLandmarks":[],"_id":"69182a39fe1651b1185984d3","id":6,"userId":"user_1763031794290","images":["/uploads/1763191352811.jpg","/uploads/1763191352851.jpg","/uploads/1763191352891.jpg"],"video":"/uploads/1763191352958.mp4","type":"1 BHK","bhk":1,"area":"1500 sqft","price":"₹12.67 Lakh","priceValue":1266636,"location":"Location, Nellore","status":"For Sale","furnishing":"Unfurnished","isFeatured":false,"userType":"Owner","phoneNumber":"1234567899","lookingTo":"Sell","propertyKind":"Residential","propertyType":"Apartment","city":"Nellore","bathrooms":1,"balconies":0,"plotArea":"","carpetArea":"","coveredParking":0,"openParking":0,"totalFloors":1,"availability":"Ready to move","propertyAge":"1-5 years","ownership":"Freehold","expectedPrice":1266636,"description":"","createdAt":"2025-11-15T07:22:33.951Z","updatedAt":"2025-11-27T16:48:16.564Z","__v":0,"leadsLast30Days":44,"leadsLast7Days":14,"planType":"free","shortlistsCount":17,"viewsLast30Days":115,"viewsLast7Days":20},{"media":{"photos":[],"videos":[],"floorplans":[],"brochures":[]},"contactRole":"owner","whatsapp":false,"contactOnlyLoggedIn":false,"country":"India","latitude":19.076,"longitude":72.8777,"hideExactLocation":false,"maintenancePeriod":"monthly","negotiable":false,"preferredTenants":[],"keyHighlights":[],"amenities":[],"priceIncludes":[],"nearbyLandmarks":[],"_id":"69182a16fe1651b1185984d0","id":5,"userId":"user_1763031794290","images":[],"type":"1 BHK","bhk":1,"area":"1500 sqft","price":"₹0","priceValue":0,"location":"Location, Nellore","status":"For Sale","furnishing":"Unfurnished","isFeatured":false,"userType":"Owner","phoneNumber":"1234567899","lookingTo":"Sell","propertyKind":"Residential","propertyType":"Apartment","city":"Nellore","bathrooms":1,"balconies":0,"plotArea":"","carpetArea":"","coveredParking":0,"openParking":0,"totalFloors":1,"availability":"Ready to move","propertyAge":"1-5 years","ownership":"Freehold","expectedPrice":null,"description":"","createdAt":"2025-11-15T07:21:58.620Z","updatedAt":"2025-11-27T16:48:16.410Z","__v":0,"expiresAt":"2025-12-01T09:40:30.402Z","leadsLast30Days":37,"leadsLast7Days":3,"planType":"premium","shortlistsCount":6,"viewsLast30Days":151,"viewsLast7Days":46},{"media":{"photos":[],"videos":[],"floorplans":[],"brochures":[]},"contactRole":"owner","whatsapp":false,"contactOnlyLoggedIn":false,"country":"India","latitude":19.076,"longitude":72.8777,"hideExactLocation":false,"maintenancePeriod":"monthly","negotiable":false,"preferredTenants":[],"keyHighlights":[],"amenities":[],"priceIncludes":[],"nearbyLandmarks":[],"_id":"69182a12fe1651b1185984cd","id":4,"userId":"user_1763031794290","images":[],"type":"1 BHK","bhk":1,"area":"1500 sqft","price":"₹0","priceValue":0,"location":"Location, Nellore","status":"For Sale","furnishing":"Unfurnished","isFeatured":false,"userType":"Owner","phoneNumber":"1234567899","lookingTo":"Sell","propertyKind":"Residential","propertyType":"Apartment","city":"Nellore","bathrooms":1,"balconies":0,"plotArea":"","carpetArea":"","coveredParking":0,"openParking":0,"totalFloors":1,"availability":"Ready to move","propertyAge":"1-5 years","ownership":"Freehold","expectedPrice":null,"description":"","createdAt":"2025-11-15T07:21:54.045Z","updatedAt":"2025-11-27T16:48:16.371Z","__v":0,"expiresAt":"2025-12-08T21:00:02.577Z","leadsLast30Days":65,"leadsLast7Days":4,"planType":"featured","shortlistsCount":7,"viewsLast30Days":69,"viewsLast7Days":54}],"totalCount":12,"totalPages":2,"currentPage":1}